{
  "policy": {
    "phases": {
      "hot": {
        "actions": {
          "rollover": {
            "max_size": "1GB",
            "max_age": "1d"
          },
          "set_priority" : {
            "priority": 100
          }
        }
      },
      "warm": {
        "min_age": "1d",
        "actions": {
          "readonly": { },
          "allocate": {
            "number_of_replicas": 1
          },
          "shrink" : {
            "number_of_shards": 1
          },
          "forcemerge": {
            "max_num_segments": 1
          },
          "set_priority" : {
            "priority": 50
          }
        }
      },
      "cold": {
        "min_age": "2d",
        "actions": {
          "freeze" : { },
          "set_priority" : {
            "priority": 0
          }
        }
      },
      "delete": {
        "min_age": "6d",
        "actions": {
          "delete": {}
        }
      }
    }
  }
}